{
    "cinemas": [{
        "id": 14386,
        "mark": 0,
        "nm": "星河电影院(番禺区店)",
        "sellPrice": "28",
        "addr": "番禺区番禺南村兴业大道之一人人佳购物广场2楼",
        "distance": "2.5km",
        "tag": {
            "allowRefund": 0,
            "buyout": 0,
            "cityCardTag": 0,
            "deal": 0,
            "endorse": 0,
            "hallTypeVOList": [],
            "sell": 1,
            "snack": 1,
            "vipTag": "折扣卡"
        },
        "promotion": {
            "cardPromotionTag": "开卡特惠，首单2张立减4元"
        },
        "showTimes": "22:50"
    }, {
        "id": 8025,
        "mark": 0,
        "nm": "IDC星梦影城(海印又一城店)",
        "sellPrice": "42",
        "addr": "番禺区番禺大道383号海印又一城4楼（华南碧桂园旁）",
        "distance": "4km",
        "tag": {
            "allowRefund": 0,
            "buyout": 0,
            "cityCardTag": 0,
            "deal": 0,
            "endorse": 1,
            "hallType": [],
            "hallTypeVOList": [],
            "sell": 1,
            "snack": 1,
            "vipTag": "折扣卡"
        },
        "promotion": {
            "cardPromotionTag": "首单更优惠，开卡即赠价值¥48元礼包"
        },
        "showTimes": "22:00 | 23:00 | 次日00:00"
    }, {
        "id": 17342,
        "mark": 0,
        "nm": "中影星海国际影城",
        "sellPrice": "28",
        "addr": "番禺区光明北路281号鸿禧优活中心四楼",
        "distance": "4.2km",
        "tag": {
            "allowRefund": 1,
            "buyout": 0,
            "cityCardTag": 0,
            "deal": 0,
            "endorse": 1,
            "hallTypeVOList": [],
            "sell": 1,
            "snack": 1,
            "vipTag": "折扣卡"
        },
        "promotion": {
            "cardPromotionTag": "开卡特惠，首单2张立减4元"
        },
        "showTimes": "22:10"
    }, {
        "id": 25657,
        "mark": 0,
        "nm": "古时代·国际影城",
        "sellPrice": "30",
        "addr": "番禺区沙头街小罗村小罗商业城金亿广场一楼古时代.国际影城",
        "distance": "4.3km",
        "tag": {
            "allowRefund": 1,
            "buyout": 0,
            "cityCardTag": 0,
            "deal": 0,
            "endorse": 1,
            "hallTypeVOList": [],
            "sell": 1,
            "snack": 1,
            "vipTag": "折扣卡"
        },
        "promotion": {
            "cardPromotionTag": "开卡特惠，首单2张立减10元"
        },
        "showTimes": "21:40 | 23:00"
    }, {
        "id": 9260,
        "mark": 0,
        "nm": "烽禾影城(南村剑桥郡店)",
        "sellPrice": "28",
        "addr": "番禺区雅居乐剑桥郡国际文化中心4楼（近剑桥郡小区）",
        "distance": "4.5km",
        "tag": {
            "allowRefund": 0,
            "buyout": 0,
            "cityCardTag": 0,
            "deal": 0,
            "endorse": 1,
            "hallType": ["DTS:X 临境音厅"],
            "hallTypeVOList": [{
                "name": "DTS:X 临境音厅",
                "url": ""
            }],
            "sell": 1,
            "snack": 1,
            "vipTag": "折扣卡"
        },
        "promotion": {
            "cardPromotionTag": "开卡特惠，首单2张立减10元"
        },
        "showTimes": "22:00"
    }, {
        "id": 10602,
        "mark": 0,
        "nm": "万达影城(番禺万达广场店)",
        "sellPrice": "55",
        "addr": "番禺区南村镇汉溪大道东389号番禺万达广场四楼",
        "distance": "4.5km",
        "tag": {
            "allowRefund": 0,
            "buyout": 0,
            "cityCardTag": 0,
            "deal": 0,
            "endorse": 0,
            "hallType": ["IMAX厅", "RealD 6FL厅", "4DX厅", "儿童厅"],
            "hallTypeVOList": [{
                "name": "IMAX厅",
                "url": ""
            }, {
                "name": "RealD 6FL厅",
                "url": ""
            }, {
                "name": "4DX厅",
                "url": ""
            }, {
                "name": "儿童厅",
                "url": ""
            }],
            "sell": 1,
            "snack": 1,
            "vipTag": "折扣卡"
        },
        "promotion": {
            "cardPromotionTag": "开卡特惠，首单1张立减5元"
        },
        "showTimes": "22:00 | 22:40"
    }, {
        "id": 8623,
        "mark": 0,
        "nm": "大地影院(潮流汇店)",
        "sellPrice": "41.9",
        "addr": "番禺区石基镇市莲路41号石岗东村段K1潮流汇6楼",
        "distance": "4.9km",
        "tag": {
            "allowRefund": 0,
            "buyout": 0,
            "cityCardTag": 0,
            "deal": 0,
            "endorse": 0,
            "hallTypeVOList": [],
            "sell": 1,
            "snack": 1,
            "vipTag": "折扣卡"
        },
        "promotion": {
            "cardPromotionTag": "限时¥23.9促销开卡，首单更优惠"
        },
        "showTimes": "22:00 | 23:00"
    }, {
        "id": 13962,
        "mark": 0,
        "nm": "中影JAJ24小时咖啡·影院(易发街店)",
        "sellPrice": "28",
        "addr": "番禺区繁华路3号三楼（易发商业街旁）",
        "distance": "4.9km",
        "tag": {
            "allowRefund": 0,
            "buyout": 0,
            "cityCardTag": 0,
            "deal": 0,
            "endorse": 1,
            "hallTypeVOList": [],
            "sell": 1,
            "snack": 1,
            "vipTag": "折扣卡"
        },
        "promotion": {
            "cardPromotionTag": "开卡特惠，首单2张立减4元"
        },
        "showTimes": "22:15"
    }, {
        "id": 16860,
        "mark": 0,
        "nm": "期遇·UUE影城(繁华中心店)",
        "sellPrice": "29",
        "addr": "番禺区繁华路57号6楼",
        "distance": "5km",
        "tag": {
            "allowRefund": 0,
            "buyout": 0,
            "cityCardTag": 0,
            "deal": 0,
            "endorse": 0,
            "hallTypeVOList": [],
            "sell": 1,
            "snack": 1,
            "vipTag": "折扣卡"
        },
        "promotion": {
            "cardPromotionTag": "开卡特惠，首单2张立减10元"
        },
        "showTimes": "21:55 | 22:25 | 22:55"
    }, {
        "id": 15803,
        "mark": 0,
        "nm": "CGV影城(永旺店)",
        "sellPrice": "34",
        "addr": "番禺区亚运大道1号永旺梦乐城4F",
        "distance": "5.1km",
        "tag": {
            "allowRefund": 0,
            "buyout": 0,
            "cityCardTag": 0,
            "deal": 0,
            "endorse": 0,
            "hallType": ["60帧厅"],
            "hallTypeVOList": [],
            "sell": 1,
            "snack": 1,
            "vipTag": "折扣卡"
        },
        "promotion": {
            "cardPromotionTag": "开卡特惠，首单2张立减6元"
        },
        "showTimes": "22:20 | 23:10 | 23:45"
    }, {
        "id": 26313,
        "mark": 0,
        "nm": "期遇.逸电影城(易发街新大新店)",
        "sellPrice": "28",
        "addr": "番禺区市桥街易发商业街新大新百货四层（商业中心）",
        "distance": "5.1km",
        "tag": {
            "allowRefund": 0,
            "buyout": 0,
            "cityCardTag": 0,
            "deal": 0,
            "endorse": 0,
            "hallTypeVOList": [],
            "sell": 1,
            "snack": 1
        },
        "promotion": {},
        "showTimes": "22:10 | 22:40 | 23:10"
    }, {
        "id": 9445,
        "mark": 0,
        "nm": "泛洋国际影城",
        "sellPrice": "38",
        "addr": "番禺区市桥街清东路203号汇珑商业中心五楼E22;六楼F18",
        "distance": "5.1km",
        "tag": {
            "allowRefund": 0,
            "buyout": 0,
            "cityCardTag": 0,
            "deal": 0,
            "endorse": 1,
            "hallType": ["IMAX厅"],
            "hallTypeVOList": [{
                "name": "IMAX厅",
                "url": ""
            }],
            "sell": 1,
            "snack": 1,
            "vipTag": "折扣卡"
        },
        "promotion": {
            "cardPromotionTag": "开卡特惠，首单2张立减4元"
        },
        "showTimes": "21:55 | 22:55 | 23:50"
    }, {
        "id": 26765,
        "mark": 0,
        "nm": "哈艺巨幕影城(祈福度假俱乐部店)",
        "sellPrice": "39.9",
        "addr": "番禺区市广路8号祈福新村度假俱乐部",
        "distance": "5.3km",
        "tag": {
            "allowRefund": 0,
            "buyout": 0,
            "cityCardTag": 0,
            "deal": 0,
            "endorse": 1,
            "hallTypeVOList": [],
            "sell": 1,
            "snack": 0
        },
        "promotion": {},
        "showTimes": "22:55"
    }, {
        "id": 2119,
        "mark": 0,
        "nm": "大地影院(百德商业中心店)",
        "sellPrice": "30.9",
        "addr": "番禺区桥街工业路128号百德商业中心3楼",
        "distance": "5.3km",
        "tag": {
            "allowRefund": 0,
            "buyout": 0,
            "cityCardTag": 0,
            "deal": 0,
            "endorse": 0,
            "hallTypeVOList": [],
            "sell": 1,
            "snack": 1
        },
        "promotion": {},
        "showTimes": "22:20"
    }, {
        "id": 25376,
        "mark": 0,
        "nm": "哈艺时尚影城(祈福新邨店)",
        "sellPrice": "33.9",
        "addr": "番禺区钟村街福华路64号（祈福俱乐部斜对面）",
        "distance": "5.4km",
        "tag": {
            "allowRefund": 0,
            "buyout": 0,
            "cityCardTag": 0,
            "deal": 0,
            "endorse": 1,
            "hallTypeVOList": [],
            "sell": 1,
            "snack": 1,
            "vipTag": "折扣卡"
        },
        "promotion": {
            "cardPromotionTag": "开卡特惠，首单2张立减4元"
        },
        "showTimes": "22:20 | 23:40"
    }, {
        "id": 25372,
        "mark": 0,
        "nm": "华夏太古影城(番禺广场店)",
        "sellPrice": "30",
        "addr": "番禺区番禺广场基盛万科中央公园B区5楼",
        "distance": "5.6km",
        "tag": {
            "allowRefund": 0,
            "buyout": 0,
            "cityCardTag": 0,
            "deal": 0,
            "endorse": 0,
            "hallType": ["杜比全景声厅"],
            "hallTypeVOList": [{
                "name": "杜比全景声厅",
                "url": ""
            }],
            "sell": 1,
            "snack": 0,
            "vipTag": "折扣卡"
        },
        "promotion": {
            "cardPromotionTag": "开卡特惠，首单2张立减2元"
        },
        "showTimes": "22:20 | 23:20"
    }, {
        "id": 8622,
        "mark": 0,
        "nm": "大地影院(西丽店)",
        "sellPrice": "33.9",
        "addr": "番禺区市桥街西丽南路93号西丽广场4楼（西城花园东）",
        "distance": "5.9km",
        "tag": {
            "allowRefund": 0,
            "buyout": 0,
            "cityCardTag": 0,
            "deal": 0,
            "endorse": 0,
            "hallTypeVOList": [],
            "sell": 1,
            "snack": 1,
            "vipTag": "折扣卡"
        },
        "promotion": {
            "cardPromotionTag": "限时¥23.9促销开卡，首单更优惠"
        },
        "showTimes": "22:00"
    }, {
        "id": 1671,
        "mark": 0,
        "nm": "中影火山湖电影城(番禺店)",
        "sellPrice": "33",
        "addr": "番禺区桥南街桥南路108号三层（哈街，近大润发）",
        "distance": "6.3km",
        "tag": {
            "allowRefund": 0,
            "buyout": 0,
            "cityCardTag": 0,
            "deal": 0,
            "endorse": 0,
            "hallType": ["CGS中国巨幕厅"],
            "hallTypeVOList": [{
                "name": "CGS中国巨幕厅",
                "url": ""
            }],
            "sell": 1,
            "snack": 0,
            "vipTag": "折扣卡"
        },
        "promotion": {
            "cardPromotionTag": "开卡特惠，首单2张立减2元"
        },
        "showTimes": "22:10 | 23:10"
    }, {
        "id": 2161,
        "mark": 0,
        "nm": "烽禾影城(祈福新邨店)",
        "sellPrice": "28",
        "addr": "番禺区钟屏路钟福广场3层（祈福新村祈福医院旁）",
        "distance": "6.4km",
        "tag": {
            "allowRefund": 0,
            "buyout": 0,
            "cityCardTag": 0,
            "deal": 0,
            "endorse": 1,
            "hallTypeVOList": [],
            "sell": 1,
            "snack": 1,
            "vipTag": "折扣卡"
        },
        "promotion": {
            "cardPromotionTag": "开卡特惠，首单2张立减10元"
        },
        "showTimes": "21:40"
    }, {
        "id": 24962,
        "mark": 0,
        "nm": "大地影院(石碁城市广场店)",
        "sellPrice": "38.9",
        "addr": "番禺区石基镇莲塘路2号七座四楼402",
        "distance": "6.7km",
        "tag": {
            "allowRefund": 0,
            "buyout": 0,
            "cityCardTag": 0,
            "deal": 0,
            "endorse": 0,
            "hallTypeVOList": [],
            "sell": 1,
            "snack": 1,
            "vipTag": "折扣卡"
        },
        "promotion": {
            "cardPromotionTag": "限时¥23.9促销开卡，首单更优惠"
        },
        "showTimes": "22:00"
    }],
    "movieId": "247295",
    "day": "2019-03-02",
    "random": 1551533548749,
    "paging": {
        "hasMore": true,
        "limit": 20,
        "offset": 0,
        "total": 184
    },
    "showDays": {
        "dates": [{
            "date": "2019-03-02",
            "isPredate": 0
        }, {
            "date": "2019-03-03",
            "isPredate": 0
        }, {
            "date": "2019-03-04",
            "isPredate": 0
        }, {
            "date": "2019-03-05",
            "isPredate": 0
        }, {
            "date": "2019-03-06",
            "isPredate": 0
        }, {
            "date": "2019-03-07",
            "isPredate": 0
        }, {
            "date": "2019-03-08",
            "isPredate": 0
        }, {
            "date": "2019-03-09",
            "isPredate": 0
        }, {
            "date": "2019-03-10",
            "isPredate": 0
        }, {
            "date": "2019-03-14",
            "isPredate": 0
        }]
    },
    "resId": "1551533545597"
}